Figures for FrEDI NPD Paper
…
## # A tibble: 7 x 4
##   region          impacts_percap   X025  X975
##   <chr>                    <dbl>  <dbl> <dbl>
## 1 Midwest                   6700 -900   30000
## 2 Northeast                 7800 1200   32000
## 3 Northern Plains           6900   -3.3 29000
## 4 Northwest                 6500  920   28000
## 5 Southeast                 9300 1800   37000
## 6 Southern Plains           7900 1800   30000
## 7 Southwest                 6300  840   27000

## # A tibble: 140 x 5
##    region  sector                                        X025    X975 impacts_~1
##    <chr>   <chr>                                        <dbl>   <dbl>      <dbl>
##  1 Midwest Air Quality                               -2000      -65       -480  
##  2 Midwest ATS Extreme Temperature                     980    28000       6800  
##  3 Midwest CIL Agriculture                               2.5    190         57  
##  4 Midwest CIL Crime                                     0.24     8          3.4
##  5 Midwest Coastal Properties                            0        0          0  
##  6 Midwest Electricity Demand and Supply                 4.7     40         20  
##  7 Midwest Electricity Transmission and Distribution    16       37         25  
##  8 Midwest High Tide Flooding and Traffic                0        0          0  
##  9 Midwest Inland Flooding                              -2.5      1.2       -1  
## 10 Midwest Labor                                        16      590        130  
## # ... with 130 more rows, and abbreviated variable name 1: impacts_percap
…
